<?xml version="1.0" encoding="UTF-8" standalone="no"?>
<!-- Created with Inkscape (http://www.inkscape.org/) -->

<svg
   xmlns:dc="http://purl.org/dc/elements/1.1/"
   xmlns:cc="http://creativecommons.org/ns#"
   xmlns:rdf="http://www.w3.org/1999/02/22-rdf-syntax-ns#"
   xmlns:svg="http://www.w3.org/2000/svg"
   xmlns="http://www.w3.org/2000/svg"
   xmlns:sodipodi="http://sodipodi.sourceforge.net/DTD/sodipodi-0.dtd"
   xmlns:inkscape="http://www.inkscape.org/namespaces/inkscape"
   width="1052.3622"
   height="744.09448"
   id="svg2"
   version="1.1"
   inkscape:version="0.48.2 r9819"
   sodipodi:docname="exoticdev-logo.png"
   inkscape:export-filename="/Users/alexandrelucchesi/Desktop/exoticdev/exoticdev-logo.png"
   inkscape:export-xdpi="90"
   inkscape:export-ydpi="90">
  <defs
     id="defs4" />
  <sodipodi:namedview
     id="base"
     pagecolor="#ffffff"
     bordercolor="#666666"
     borderopacity="1.0"
     inkscape:pageopacity="0"
     inkscape:pageshadow="2"
     inkscape:zoom="0.857418"
     inkscape:cx="526.18109"
     inkscape:cy="372.04724"
     inkscape:document-units="px"
     inkscape:current-layer="g3814"
     showgrid="true"
     showguides="false"
     inkscape:snap-grids="false"
     inkscape:window-width="1436"
     inkscape:window-height="856"
     inkscape:window-x="4"
     inkscape:window-y="0"
     inkscape:window-maximized="1">
    <inkscape:grid
       type="xygrid"
       id="grid3790"
       empspacing="5"
       visible="true"
       enabled="true"
       snapvisiblegridlinesonly="true" />
  </sodipodi:namedview>
  <metadata
     id="metadata7">
    <rdf:RDF>
      <cc:Work
         rdf:about="">
        <dc:format>image/svg+xml</dc:format>
        <dc:type
           rdf:resource="http://purl.org/dc/dcmitype/StillImage" />
        <dc:title></dc:title>
      </cc:Work>
    </rdf:RDF>
  </metadata>
  <g
     transform="translate(0,-308.2677)"
     id="g3814"
     inkscape:groupmode="layer"
     inkscape:label="Layer 1 copy"
     style="display:inline">
    <flowRoot
       style="font-size:40px;font-style:normal;font-weight:normal;line-height:125%;letter-spacing:0px;word-spacing:0px;fill:#000000;fill-opacity:1;stroke:none;font-family:Sans"
       id="flowRoot3816"
       xml:space="preserve"><flowRegion
         id="flowRegion3818"><rect
           y="224.53778"
           x="291.94138"
           height="239.16103"
           width="303.48709"
           id="rect3820" /></flowRegion><flowPara
         id="flowPara3822" /></flowRoot>    <g
       id="g3906"
       inkscape:export-xdpi="42.660702"
       inkscape:export-ydpi="42.660702"
       inkscape:export-filename="/Users/alexandrelucchesi/Desktop/exoticdev/exoticdev-logo.png">
      <path
         id="path3824"
         style="font-size:276.59567261px;font-style:normal;font-variant:normal;font-weight:300;font-stretch:normal;text-align:center;line-height:125%;letter-spacing:0px;word-spacing:0px;writing-mode:lr-tb;text-anchor:middle;fill:#171f8a;fill-opacity:1;stroke:none;font-family:Calibri;-inkscape-font-specification:Calibri Light"
         d="m 145.59325,705.80331 c -1.1e-4,3.56695 -0.7774,6.04395 -2.33188,7.431 -1.55469,1.28812 -3.06837,1.93214 -4.54103,1.93207 l -75.724829,0 c -2.8e-5,8.32279 0.654535,15.85287 1.963691,22.59026 1.390916,6.73749 3.640976,12.53367 6.750187,17.38856 3.109138,4.75587 7.159245,8.42183 12.150338,10.99789 4.990993,2.5761 11.127524,3.86414 18.409593,3.86413 5.15463,1e-5 9.77747,-0.54492 13.86858,-1.63482 4.09093,-1.08987 7.60921,-2.27883 10.55483,-3.56689 3.02726,-1.3871 5.48187,-2.6256 7.36384,-3.7155 1.96359,-1.08986 3.35453,-1.6348 4.17284,-1.63482 0.49082,2e-5 0.94083,0.14864 1.35004,0.44586 0.409,0.29726 0.73628,0.79266 0.98185,1.4862 0.24535,0.5945 0.409,1.38714 0.49092,2.37792 0.16353,0.99082 0.24536,2.22932 0.24546,3.71551 -1e-4,0.69358 -0.041,1.38713 -0.12273,2.08068 -0.082,0.59449 -0.20465,1.18897 -0.36819,1.78344 -0.082,0.49542 -0.24557,0.99081 -0.49093,1.4862 -0.24556,0.49541 -0.57285,0.99081 -0.98184,1.48621 -0.4092,0.4954 -1.67742,1.38712 -3.80465,2.67516 -2.12743,1.18896 -4.90932,2.42746 -8.34569,3.7155 -3.43654,1.18896 -7.44574,2.27884 -12.02761,3.26965 -4.50019,0.99079 -9.36851,1.48619 -14.60495,1.48619 -8.591193,0 -16.200491,-1.53574 -22.827897,-4.60722 -6.627493,-3.17056 -12.191279,-7.77777 -16.691373,-13.82167 -4.500146,-6.14294 -7.936601,-13.72257 -10.309376,-22.73889 -2.290987,-9.01624 -3.436471,-19.46918 -3.436459,-31.35885 -1.2e-5,-11.39413 1.186382,-21.59937 3.55919,-30.61575 2.454595,-9.01619 5.93196,-16.64534 10.432107,-22.88751 4.500094,-6.34099 9.900238,-11.14637 16.200449,-14.41616 6.381947,-3.36858 13.459411,-5.05294 21.232411,-5.05308 8.345608,1.4e-4 15.463988,1.6845 21.355128,5.05308 5.89098,3.36886 10.71839,7.92654 14.48223,13.67306 3.84545,5.64768 6.62734,12.23651 8.34568,19.76648 1.79994,7.53019 2.69996,15.45658 2.70007,23.77923 l 0,3.56688 m -15.09587,-5.20171 c 0.24537,-14.26743 -2.45471,-25.41394 -8.10022,-33.43953 -5.64569,-8.02537 -13.86865,-12.0381 -24.668871,-12.03824 -5.563845,1.4e-4 -10.473066,1.28818 -14.727677,3.86413 -4.172888,2.47712 -7.732074,5.7963 -10.677569,9.95755 -2.863751,4.16147 -5.072901,9.0164 -6.627456,14.56478 -1.554619,5.4495 -2.454642,11.14659 -2.700076,17.09131 l 67.501869,0"
         inkscape:connector-curvature="0" />
      <path
         id="path3826"
         style="font-size:276.59567261px;font-style:normal;font-variant:normal;font-weight:300;font-stretch:normal;text-align:center;line-height:125%;letter-spacing:0px;word-spacing:0px;writing-mode:lr-tb;text-anchor:middle;fill:#95117c;fill-opacity:1;stroke:none;font-family:Calibri;-inkscape-font-specification:Calibri Light"
         d="m 270.41035,776.39789 c -1.1e-4,0.89172 -0.041,1.7339 -0.12273,2.52654 -1.1e-4,0.69357 -0.041,1.28804 -0.12273,1.78344 -0.082,0.49541 -0.20466,0.94127 -0.36819,1.33759 -0.082,0.29724 -0.24558,0.59447 -0.49093,0.89171 -0.24556,0.29725 -0.69558,0.59448 -1.35003,0.89172 -0.57285,0.29725 -1.26833,0.54495 -2.08642,0.74311 -0.81831,0.19816 -1.67743,0.34678 -2.57735,0.44586 -0.81831,0.099 -1.63651,0.14861 -2.45462,0.14861 -3.35473,0 -6.30026,-0.44586 -8.8366,-1.33758 -2.4547,-0.79264 -4.62295,-2.22929 -6.50473,-4.30997 -1.88196,-2.08069 -3.60019,-4.85492 -5.15469,-8.32274 -1.47285,-3.56687 -2.9047,-8.02547 -4.29557,-13.37581 L 212.6042,666.41896 178.73054,779.96477 c -0.24549,0.69356 -0.53186,1.28805 -0.85912,1.78344 -0.3273,0.4954 -0.85913,0.89172 -1.5955,1.18896 -0.65458,0.29725 -1.55461,0.4954 -2.70007,0.59448 -1.06368,0.19816 -2.45463,0.29724 -4.17284,0.29724 -1.71825,0 -3.10919,-0.099 -4.17285,-0.29724 -1.06367,-0.19816 -1.84097,-0.54494 -2.33188,-1.04034 -0.49093,-0.49539 -0.73639,-1.13942 -0.73639,-1.93206 0.0818,-0.89172 0.36819,-2.03114 0.85912,-3.41826 l 43.2012,-135.83883 -3.43646,-13.37582 c -4.33653,-16.74436 -7.69116,-27.19731 -10.06392,-31.35885 -2.37282,-4.16117 -6.01383,-6.24185 -10.92303,-6.24204 -2.37282,1.9e-4 -4.86833,0.44605 -7.48657,1.33757 -2.53645,0.89192 -4.09103,1.33777 -4.66376,1.33758 -0.32729,1.9e-4 -0.61367,-0.0493 -0.85912,-0.14861 -0.24547,-0.19798 -0.45003,-0.49521 -0.61365,-0.89172 -0.16366,-0.39613 -0.28638,-0.94108 -0.3682,-1.63482 -0.0818,-0.69337 -0.12274,-1.63463 -0.12273,-2.82379 -10e-6,-2.27864 0.0818,-4.01254 0.24547,-5.2017 0.16362,-1.18876 0.49091,-2.08048 0.98184,-2.67517 0.57273,-0.69336 1.30912,-1.2383 2.20916,-1.63482 0.90001,-0.49519 2.16822,-0.99059 3.80465,-1.4862 1.71821,-0.4952 3.27279,-0.84198 4.66376,-1.04034 1.39093,-0.19796 2.61823,-0.29704 3.68192,-0.29725 3.76371,2.1e-4 7.11835,0.49561 10.06392,1.48621 3.02731,0.991 5.80921,3.07168 8.34568,6.24204 2.53639,3.07169 4.95009,7.53029 7.24111,13.37581 2.37274,5.84592 4.78644,13.57416 7.24111,23.18476 l 33.9964,132.86642 c 0.89993,3.56691 1.75905,6.48977 2.57735,8.76859 0.89993,2.17978 1.79995,3.91369 2.70007,5.20171 0.98174,1.28805 2.04541,2.17977 3.191,2.67516 1.14538,0.49542 2.49541,0.74311 4.05011,0.7431 0.98174,10e-6 1.92267,-0.0495 2.8228,-0.14862 0.89992,-0.099 1.6363,-0.1486 2.20916,-0.14863 0.49081,3e-5 0.89991,0.0992 1.2273,0.29725 0.409,0.0992 0.69537,0.39633 0.85912,0.89172 0.24535,0.39634 0.40899,1.08989 0.49092,2.08069 0.0817,0.89172 0.12262,2.13022 0.12273,3.7155 M 158.72543,642.3425 l 0,0"
         inkscape:connector-curvature="0" />
      <path
         id="path3828"
         style="font-size:276.59567261px;font-style:normal;font-variant:normal;font-weight:300;font-stretch:normal;text-align:center;line-height:125%;letter-spacing:0px;word-spacing:0px;writing-mode:lr-tb;text-anchor:middle;fill:#171f8a;fill-opacity:1;stroke:none;font-family:Calibri;-inkscape-font-specification:Calibri Light"
         d="m 390.44094,711.30226 c -1.1e-4,10.70071 -1.1456,20.55917 -3.43645,29.57541 -2.29109,9.01632 -5.72755,16.84364 -10.30938,23.48198 -4.50023,6.63839 -10.14583,11.84008 -16.93683,15.60512 -6.79119,3.66597 -14.68685,5.49894 -23.68702,5.49894 -8.67303,0 -16.28233,-1.63482 -22.82791,-4.90446 -6.46385,-3.36871 -11.90491,-8.12456 -16.32318,-14.26753 -4.33651,-6.24202 -7.60932,-13.77211 -9.81846,-22.59027 -2.12734,-8.81808 -3.19101,-18.77562 -3.191,-29.87265 -10e-6,-10.70057 1.10457,-20.55903 3.31374,-29.57542 2.29095,-9.01618 5.68649,-16.79396 10.18664,-23.33336 4.58191,-6.63824 10.26843,-11.7904 17.05957,-15.4565 6.79104,-3.66582 14.72762,-5.4988 23.80974,-5.49894 8.6729,1.4e-4 16.24129,1.63496 22.70518,4.90446 6.54554,3.26978 11.9866,8.02562 16.32318,14.26754 4.33638,6.14309 7.60919,13.62362 9.81845,22.44164 2.20904,8.81823 3.31362,18.72623 3.31373,29.72404 m -15.46406,1.63482 c -10e-5,-7.6291 -0.61375,-14.91148 -1.84097,-21.84717 -1.2274,-6.93551 -3.27291,-13.02893 -6.13653,-18.28028 -2.8638,-5.35021 -6.70937,-9.5611 -11.53668,-12.63271 -4.82749,-3.17044 -10.84128,-4.75572 -18.04141,-4.75585 -6.62752,1.3e-4 -12.35494,1.43679 -17.18229,4.30999 -4.82746,2.87344 -8.79574,6.88618 -11.90488,12.03824 -3.02739,5.05318 -5.27745,11.04753 -6.75018,17.98303 -1.4728,6.9357 -2.20919,14.41624 -2.20916,22.44165 -3e-5,7.7283 0.61363,15.10977 1.84096,22.14441 1.22728,6.93564 3.27279,13.02906 6.13653,18.28027 2.86369,5.25127 6.70924,9.41263 11.53669,12.4841 4.82735,3.0715 10.84115,4.60723 18.04141,4.60722 6.62738,10e-6 12.35481,-1.43665 17.18229,-4.30998 4.82732,-2.8733 8.7547,-6.83651 11.78215,-11.88962 3.10908,-5.05305 5.40005,-11.04739 6.87291,-17.98303 1.47267,-6.93556 2.20906,-14.46564 2.20916,-22.59027"
         inkscape:connector-curvature="0" />
      <path
         id="path3830"
         style="font-size:276.59567261px;font-style:normal;font-variant:normal;font-weight:300;font-stretch:normal;text-align:center;line-height:125%;letter-spacing:0px;word-spacing:0px;writing-mode:lr-tb;text-anchor:middle;fill:#171f8a;fill-opacity:1;stroke:none;font-family:Calibri;-inkscape-font-specification:Calibri Light"
         d="m 513.53981,642.3425 c 1.88176,1.4e-4 3.14998,0.59462 3.80465,1.78344 0.65446,1.09002 0.98174,2.62576 0.98186,4.60722 l 0,131.23161 c -1.2e-4,0.59448 -0.12286,1.13942 -0.3682,1.63483 -0.24557,0.4954 -0.65468,0.89172 -1.22731,1.18896 -0.49103,0.29723 -1.22742,0.54493 -2.20915,0.74309 -0.90013,0.19816 -2.04562,0.29724 -3.43646,0.29724 -1.47287,0 -2.70018,-0.099 -3.68192,-0.29724 -0.90013,-0.19816 -1.63651,-0.44586 -2.20915,-0.74309 -0.49103,-0.29724 -0.85922,-0.69356 -1.10458,-1.18896 -0.24556,-0.49541 -0.36829,-1.04035 -0.36819,-1.63483 l 0,-122.61163 -61.36534,0 0,81.29522 c -4e-5,10.20529 1.18635,17.98307 3.55919,23.33337 2.45457,5.35034 6.87287,8.0255 13.25491,8.02549 1.96364,1e-5 3.72278,-0.24769 5.27742,-0.7431 1.63635,-0.49539 3.06821,-1.04032 4.29558,-1.63482 1.22724,-0.59446 2.25,-1.13941 3.06827,-1.63482 0.89995,-0.49539 1.67724,-0.74309 2.33188,-0.74311 0.40903,2e-5 0.77722,0.0992 1.10457,0.29725 0.32721,0.19818 0.57267,0.5945 0.73639,1.18896 0.24539,0.49541 0.40903,1.18897 0.49093,2.08068 0.16356,0.79265 0.24538,1.833 0.24545,3.12102 -7e-5,2.08069 -0.16371,3.76505 -0.49092,5.05309 -0.24553,1.28804 -0.69555,2.32838 -1.35004,3.12102 -0.57281,0.69357 -1.47283,1.38712 -2.70007,2.08068 -1.14555,0.59449 -2.49559,1.08989 -4.05012,1.48621 -1.55465,0.49539 -3.19105,0.84218 -4.90922,1.04033 -1.71829,0.29724 -3.39561,0.44586 -5.03196,0.44586 -5.48202,0 -10.14578,-0.89172 -13.9913,-2.67516 -3.8456,-1.78344 -6.99568,-4.4586 -9.45026,-8.02549 -2.45464,-3.66595 -4.25469,-8.27316 -5.40015,-13.82167 -1.06369,-5.54846 -1.59553,-12.08774 -1.5955,-19.61786 l 0,-83.67315 -16.56864,0 c -1.14549,1.2e-4 -2.04552,-0.59435 -2.70008,-1.78345 -0.65456,-1.28791 -0.98184,-3.17043 -0.98184,-5.64757 0,-1.28789 0.0818,-2.37778 0.24547,-3.26964 0.16363,-0.99066 0.40909,-1.7833 0.73637,-2.37792 0.32728,-0.69342 0.69548,-1.18882 1.10458,-1.4862 0.49092,-0.2971 1.02275,-0.44572 1.5955,-0.44586 l 16.56864,0 0,-32.99368 c -3e-5,-0.5943 0.0818,-1.13924 0.24547,-1.63482 0.24543,-0.49523 0.65453,-0.89155 1.2273,-1.18896 0.57271,-0.39614 1.3091,-0.64384 2.20916,-0.7431 0.98181,-0.19798 2.1682,-0.29706 3.55918,-0.29724 1.47274,1.8e-4 2.65913,0.0993 3.55919,0.29724 0.98181,0.0993 1.71819,0.34696 2.20916,0.7431 0.5727,0.29741 0.9818,0.69373 1.2273,1.18896 0.24542,0.49558 0.36815,1.04052 0.36819,1.63482 l 0,32.99368 71.18379,0 m 6.99565,-42.20813 c -1.2e-4,4.75602 -0.69559,7.97612 -2.08642,9.66031 -1.39106,1.68454 -3.92749,2.52672 -7.6093,2.52654 -3.6002,1.8e-4 -6.09573,-0.79246 -7.48657,-2.37792 -1.30923,-1.68418 -1.96379,-4.90428 -1.96369,-9.66031 -10e-5,-4.75566 0.69537,-7.97576 2.08642,-9.6603 1.39085,-1.68418 3.92727,-2.52635 7.6093,-2.52655 3.59999,2e-4 6.0546,0.84237 7.36384,2.52655 1.39083,1.58546 2.0863,4.75603 2.08642,9.51168 m -37.31012,42.20813 0,0"
         inkscape:connector-curvature="0" />
      <path
         id="path3832"
         style="font-size:276.59567261px;font-style:normal;font-variant:normal;font-weight:300;font-stretch:normal;text-align:center;line-height:125%;letter-spacing:0px;word-spacing:0px;writing-mode:lr-tb;text-anchor:middle;fill:#171f8a;fill-opacity:1;stroke:none;font-family:Calibri;-inkscape-font-specification:Calibri Light"
         d="m 636.76142,760.04967 c -1e-4,1.18898 -0.041,2.27886 -0.12274,3.26964 -0.0819,0.89174 -0.20465,1.68439 -0.36819,2.37792 -0.16374,0.69358 -0.4092,1.33761 -0.73639,1.93207 -0.24555,0.49541 -0.90012,1.38714 -1.96368,2.67516 -1.06376,1.28805 -2.86381,2.92287 -5.40016,4.90447 -2.45469,1.98161 -5.23659,3.7155 -8.34568,5.2017 -3.10925,1.4862 -6.46389,2.67516 -10.06392,3.56689 -3.60016,0.99079 -7.32299,1.48619 -11.16849,1.48619 -7.69118,0 -14.52317,-1.53574 -20.49602,-4.60722 -5.89111,-3.17056 -10.84124,-7.77777 -14.85042,-13.82167 -4.00921,-6.14294 -7.07748,-13.62349 -9.20479,-22.44165 -2.04553,-8.91716 -3.06829,-19.17194 -3.06827,-30.76437 -2e-5,-13.07849 1.26821,-24.27454 3.80465,-33.58815 2.61823,-9.31342 6.17743,-16.94258 10.67757,-22.88751 4.5001,-5.94468 9.7366,-10.30419 15.70953,-13.07858 6.05466,-2.87318 12.51847,-4.30984 19.39144,-4.30998 3.68186,1.4e-4 7.20013,0.446 10.55484,1.33758 3.35456,0.79278 6.42283,1.88266 9.2048,3.26964 2.86363,1.38726 5.40007,2.97254 7.6093,4.75585 2.20907,1.78358 3.80456,3.31931 4.7865,4.60722 1.06357,1.1891 1.75905,2.13035 2.08642,2.82378 0.409,0.59461 0.69538,1.28818 0.85912,2.08069 0.24536,0.79277 0.409,1.68448 0.49092,2.67516 0.0817,0.89184 0.12263,1.98172 0.12273,3.26964 -10e-5,2.87344 -0.36829,4.90458 -1.10458,6.09343 -0.65465,1.08999 -1.39104,1.63493 -2.20914,1.63482 -1.14558,1.1e-4 -2.57744,-0.89161 -4.29558,-2.67516 -1.6365,-1.78333 -3.76383,-3.71538 -6.382,-5.79619 -2.61833,-2.17964 -5.80933,-4.16124 -9.57299,-5.9448 -3.68199,-1.78332 -8.10029,-2.67504 -13.25491,-2.67517 -10.63671,1.3e-4 -18.85966,4.95413 -24.66887,14.86202 -5.72747,9.90811 -8.59117,24.22518 -8.59115,42.95122 -2e-5,9.41268 0.77727,17.68586 2.33188,24.81958 1.55456,7.03472 3.76372,12.92998 6.62746,17.6858 2.9455,4.65678 6.50469,8.17412 10.67757,10.55203 4.17279,2.27886 8.87746,3.41827 14.11403,3.41826 4.90916,10e-6 9.24564,-0.94125 13.00945,-2.82379 3.76367,-1.88249 7.03648,-3.96317 9.81846,-6.24204 2.7818,-2.27882 5.07277,-4.3595 6.87291,-6.24205 1.88178,-1.88249 3.27272,-2.82374 4.17285,-2.82378 0.49082,4e-5 0.89993,0.19819 1.22731,0.59448 0.409,0.29727 0.73628,0.84221 0.98184,1.63482 0.24536,0.69359 0.409,1.58531 0.49092,2.67516 0.16354,0.99083 0.24537,2.17979 0.24547,3.56689"
         inkscape:connector-curvature="0" />
      <g
         style="font-size:758.1796875px;font-style:italic;font-variant:normal;font-weight:bold;font-stretch:normal;line-height:125%;letter-spacing:0px;word-spacing:0px;fill:#6680ff;fill-opacity:1;stroke:none;font-family:Calibri;-inkscape-font-specification:Calibri Bold Italic"
         id="g3834"
         transform="matrix(0.90873593,0,0,1.1004297,-8.0584095e-6,-2.4730846e-5)">
        <path
           inkscape:connector-curvature="0"
           d="m 831.716,708.78202 c -1.2e-4,0.63027 -0.13518,1.1705 -0.40517,1.62068 -0.1802,0.45019 -0.58537,0.81034 -1.21551,1.08045 -0.54034,0.27012 -1.26064,0.45019 -2.1609,0.54023 -0.9005,0.18007 -2.02597,0.27011 -3.37641,0.27011 -1.44072,0 -2.65623,-0.09 -3.64653,-0.27011 -0.90049,-0.09 -1.66581,-0.27011 -2.29596,-0.54023 -0.54033,-0.27011 -0.99052,-0.63026 -1.35056,-1.08045 -0.27022,-0.45018 -0.40528,-0.99041 -0.40517,-1.62068 l 0,-17.55734 c -6.48282,7.02295 -13.19061,12.56026 -20.12342,16.61195 -6.93298,3.96166 -14.49613,5.94248 -22.68949,5.94248 -8.82374,0 -16.34188,-1.71071 -22.55443,-5.13214 -6.21263,-3.42143 -11.29976,-8.05836 -15.26138,-13.91082 -3.87164,-5.85242 -6.70783,-12.69528 -8.50856,-20.52858 -1.80077,-7.92327 -2.70115,-16.29677 -2.70113,-25.12051 -2e-5,-10.35426 1.12545,-19.67315 3.37641,-27.95669 2.25092,-8.3734 5.58231,-15.48637 9.99418,-21.33893 4.41181,-5.85233 9.85909,-10.3542 16.34183,-13.50564 6.48267,-3.15119 14.0008,-4.72685 22.55444,-4.72698 7.38301,1.3e-4 14.13583,1.66582 20.25847,4.99709 6.12247,3.24148 12.15498,8.05849 18.09757,14.45104 l 0,-73.60578 c -1.1e-4,-0.54004 0.0899,-1.03525 0.27011,-1.48562 0.27001,-0.45 0.7202,-0.81015 1.35057,-1.08045 0.63015,-0.26993 1.44049,-0.49502 2.43101,-0.67528 1.08034,-0.17989 2.38589,-0.26993 3.91664,-0.27012 1.62056,1.9e-4 2.92611,0.0902 3.91664,0.27012 1.08033,0.18026 1.89067,0.40535 2.43101,0.67528 0.63015,0.2703 1.08034,0.63045 1.35057,1.08045 0.26999,0.45037 0.40505,0.94558 0.40517,1.48562 l 0,181.38085 m -16.07172,-88.19188 c -6.75292,-8.19332 -13.28065,-14.45094 -19.58319,-18.77285 -6.21268,-4.32169 -12.7404,-6.48259 -19.58319,-6.48271 -6.21266,1.2e-4 -11.52488,1.48574 -15.93667,4.45686 -4.41189,2.97136 -8.01339,6.88799 -10.80452,11.74992 -2.7912,4.86213 -4.81704,10.35442 -6.07754,16.47689 -1.26056,6.12264 -1.89082,12.33523 -1.89079,18.63779 -3e-5,6.75289 0.5402,13.32563 1.62068,19.71825 1.08042,6.39271 2.92619,12.1101 5.53732,17.15217 2.61105,4.9521 6.07749,8.95877 10.39935,12.02003 4.32175,2.97126 9.724,4.45687 16.20677,4.45686 3.24129,1e-5 6.3926,-0.45017 9.45396,-1.35056 3.0612,-0.90036 6.21251,-2.38598 9.45395,-4.45687 3.24127,-2.07084 6.57266,-4.72695 9.99418,-7.96833 3.51137,-3.33136 7.24793,-7.42807 11.20969,-12.29014 l 0,-53.34731"
           style="fill:#6680ff;fill-opacity:1"
           id="path3836" />
        <path
           inkscape:connector-curvature="0"
           d="m 976.49652,641.38884 c -1.2e-4,3.24142 -0.85548,5.49236 -2.56607,6.75282 -1.71083,1.17056 -3.37653,1.7558 -4.99709,1.75574 l -83.32985,0 c -3e-5,7.56322 0.72027,14.40607 2.16091,20.52858 1.5306,6.1226 4.00663,11.3898 7.4281,15.80161 3.42139,4.32183 7.87825,7.65322 13.37059,9.99418 5.49224,2.34099 12.24506,3.51148 20.25848,3.51147 5.67229,10e-6 10.75941,-0.49519 15.26138,-1.48562 4.50179,-0.9904 8.3734,-2.07085 11.61486,-3.24136 3.33128,-1.26051 6.03241,-2.38598 8.10338,-3.37641 2.1608,-0.99039 3.69144,-1.4856 4.59192,-1.48562 0.54012,2e-5 1.03532,0.13508 1.48563,0.40517 0.45007,0.27013 0.81022,0.72032 1.08045,1.35056 0.26999,0.54025 0.45007,1.26055 0.54022,2.16091 0.17996,0.90039 0.27,2.02586 0.27012,3.37641 -1.2e-4,0.63028 -0.0451,1.26054 -0.13506,1.89079 -0.0901,0.54024 -0.22521,1.08046 -0.40517,1.62068 -0.0901,0.4502 -0.27023,0.90038 -0.54022,1.35056 -0.27023,0.4502 -0.63038,0.90039 -1.08046,1.35057 -0.4503,0.45019 -1.84588,1.26053 -4.18675,2.43102 -2.34109,1.08045 -5.40236,2.20592 -9.18384,3.37641 -3.78168,1.08045 -8.19352,2.07086 -13.23553,2.97124 -4.95216,0.90037 -10.30939,1.35056 -16.07172,1.35056 -9.45402,0 -17.82751,-1.39558 -25.12051,-4.18675 -7.29309,-2.8812 -13.41564,-7.06794 -18.36768,-12.56025 -4.9521,-5.58231 -8.73367,-12.47019 -11.34475,-20.66364 -2.52107,-8.19338 -3.78159,-17.69235 -3.78158,-28.49692 -10e-6,-10.35425 1.30553,-19.62812 3.91664,-27.82163 2.70111,-8.19333 6.52771,-15.12622 11.4798,-20.7987 4.95204,-5.76229 10.89452,-10.12911 17.82746,-13.10048 7.02288,-3.06115 14.81113,-4.59179 23.36477,-4.59192 9.18376,1.3e-4 17.01703,1.53077 23.49983,4.59192 6.48261,3.0614 11.79482,7.20313 15.93666,12.4252 4.23166,5.13225 7.29293,11.11975 9.18384,17.96251 1.98071,6.84295 2.97112,14.04595 2.97124,21.60904 l 0,3.24135 m -16.61194,-4.72698 c 0.27,-12.96533 -2.70124,-23.09456 -8.91373,-30.3877 -6.21269,-7.29294 -15.26146,-10.93946 -27.14635,-10.93958 -6.12263,1.2e-4 -11.52488,1.17061 -16.20678,3.51147 -4.59197,2.25105 -8.5086,5.26731 -11.74992,9.04878 -3.15135,3.78168 -5.58237,8.19353 -7.29305,13.23554 -1.71074,4.95216 -2.70116,10.12931 -2.97124,15.53149 l 74.28107,0"
           style="fill:#6680ff;fill-opacity:1"
           id="path3838" />
        <path
           inkscape:connector-curvature="0"
           d="m 1106.0157,586.2858 c -2e-4,0.27023 -0.045,0.58537 -0.1351,0.94539 -10e-5,0.27024 -0.045,0.54035 -0.1351,0.81034 -10e-5,0.27024 -0.045,0.58537 -0.135,0.9454 -0.09,0.27023 -0.1802,0.54034 -0.2701,0.81034 l -44.2985,118.98475 c -0.2702,0.72031 -0.6754,1.30555 -1.2156,1.75574 -0.5402,0.45019 -1.2155,0.81034 -2.0258,1.08045 -0.8104,0.27011 -1.8008,0.45019 -2.9712,0.54023 -1.0806,0.09 -2.3861,0.13505 -3.9167,0.13505 -1.5307,0 -2.8812,-0.09 -4.0517,-0.27011 -1.1705,-0.09 -2.1609,-0.27011 -2.9712,-0.54023 -0.8104,-0.27011 -1.4857,-0.63026 -2.0259,-1.08045 -0.5402,-0.45018 -0.9454,-0.99041 -1.2155,-1.62068 L 996.3498,589.79727 c -0.27012,-0.72018 -0.49521,-1.30543 -0.67528,-1.75574 -0.0901,-0.45006 -0.18008,-0.81021 -0.27012,-1.08045 0,-0.26999 0,-0.49508 0,-0.67528 0,-0.63014 0.13505,-1.17037 0.40517,-1.62068 0.27011,-0.45006 0.67528,-0.76519 1.21551,-0.9454 0.63026,-0.26998 1.4406,-0.45006 2.43102,-0.54022 0.9904,-0.0899 2.2059,-0.13493 3.6465,-0.13506 1.9808,1.3e-4 3.5565,0.0902 4.727,0.27011 1.1705,0.0902 2.0708,0.27024 2.7011,0.54023 0.7203,0.27024 1.2155,0.63039 1.4857,1.08045 0.3601,0.45032 0.6752,0.99054 0.9453,1.62068 l 38.221,106.69462 0.2701,0.67528 0.2702,-0.67528 37.5457,-106.69462 c 0.1799,-0.63014 0.45,-1.17036 0.8103,-1.62068 0.36,-0.45006 0.8553,-0.81021 1.4856,-1.08045 0.7202,-0.26999 1.6206,-0.45006 2.7011,-0.54023 1.1704,-0.17994 2.6561,-0.26998 4.4569,-0.27011 1.4405,1.3e-4 2.611,0.0452 3.5115,0.13506 0.9903,0.0902 1.7556,0.27024 2.2959,0.54022 0.5402,0.27024 0.9003,0.63039 1.0805,1.08046 0.27,0.36027 0.405,0.85548 0.4052,1.48562"
           style="fill:#6680ff;fill-opacity:1"
           id="path3840" />
      </g>
      <path
         style="fill:none;stroke:#171f8a;stroke-width:14.42853546;stroke-linecap:round;stroke-linejoin:miter;stroke-miterlimit:4;stroke-opacity:1;stroke-dasharray:none"
         d="m 229.59262,623.88739 17.72747,-40.63172"
         id="path3842"
         inkscape:connector-curvature="0" />
    </g>
  </g>
  <g
     style="display:none"
     inkscape:label="Layer 1 copy copy"
     inkscape:groupmode="layer"
     id="g3844"
     transform="translate(0,-308.2677)">
    <flowRoot
       xml:space="preserve"
       id="flowRoot3846"
       style="font-size:40px;font-style:normal;font-weight:normal;line-height:125%;letter-spacing:0px;word-spacing:0px;fill:#000000;fill-opacity:1;stroke:none;font-family:Sans"><flowRegion
         id="flowRegion3848"><rect
           id="rect3850"
           width="303.48709"
           height="239.16103"
           x="291.94138"
           y="224.53778" /></flowRegion><flowPara
         id="flowPara3852" /></flowRoot>    <path
       id="path3856"
       style="font-size:276.59567261px;font-style:normal;font-variant:normal;font-weight:300;font-stretch:normal;text-align:center;line-height:125%;letter-spacing:0px;word-spacing:0px;writing-mode:lr-tb;text-anchor:middle;fill:#6680ff;fill-opacity:1;stroke:none;font-family:Calibri;-inkscape-font-specification:Calibri Light"
       d="m 270.41035,776.39789 c -1.1e-4,0.89172 -0.041,1.7339 -0.12273,2.52654 -1.1e-4,0.69357 -0.041,1.28804 -0.12273,1.78344 -0.082,0.49541 -0.20466,0.94127 -0.36819,1.33759 -0.082,0.29724 -0.24558,0.59447 -0.49093,0.89171 -0.24556,0.29725 -0.69558,0.59448 -1.35003,0.89172 -0.57285,0.29725 -1.26833,0.54495 -2.08642,0.74311 -0.81831,0.19816 -1.67743,0.34678 -2.57735,0.44586 -0.81831,0.099 -1.63651,0.14861 -2.45462,0.14861 -3.35473,0 -6.30026,-0.44586 -8.8366,-1.33758 -2.4547,-0.79264 -4.62295,-2.22929 -6.50473,-4.30997 -1.88196,-2.08069 -3.60019,-4.85492 -5.15469,-8.32274 -1.47285,-3.56687 -2.9047,-8.02547 -4.29557,-13.37581 L 212.6042,666.41896 178.73054,779.96477 c -0.24549,0.69356 -0.53186,1.28805 -0.85912,1.78344 -0.3273,0.4954 -0.85913,0.89172 -1.5955,1.18896 -0.65458,0.29725 -1.55461,0.4954 -2.70007,0.59448 -1.06368,0.19816 -2.45463,0.29724 -4.17284,0.29724 -1.71825,0 -3.10919,-0.099 -4.17285,-0.29724 -1.06367,-0.19816 -1.84097,-0.54494 -2.33188,-1.04034 -0.49093,-0.49539 -0.73639,-1.13942 -0.73639,-1.93206 0.0818,-0.89172 0.36819,-2.03114 0.85912,-3.41826 l 43.2012,-135.83883 -3.43646,-13.37582 c -4.33653,-16.74436 -7.69116,-27.19731 -10.06392,-31.35885 -2.37282,-4.16117 -6.01383,-6.24185 -10.92303,-6.24204 -2.37282,1.9e-4 -4.86833,0.44605 -7.48657,1.33757 -2.53645,0.89192 -4.09103,1.33777 -4.66376,1.33758 -0.32729,1.9e-4 -0.61367,-0.0493 -0.85912,-0.14861 -0.24547,-0.19798 -0.45003,-0.49521 -0.61365,-0.89172 -0.16366,-0.39613 -0.28638,-0.94108 -0.3682,-1.63482 -0.0818,-0.69337 -0.12274,-1.63463 -0.12273,-2.82379 -10e-6,-2.27864 0.0818,-4.01254 0.24547,-5.2017 0.16362,-1.18876 0.49091,-2.08048 0.98184,-2.67517 0.57273,-0.69336 1.30912,-1.2383 2.20916,-1.63482 0.90001,-0.49519 2.16822,-0.99059 3.80465,-1.4862 1.71821,-0.4952 3.27279,-0.84198 4.66376,-1.04034 1.39093,-0.19796 2.61823,-0.29704 3.68192,-0.29725 3.76371,2.1e-4 7.11835,0.49561 10.06392,1.48621 3.02731,0.991 5.80921,3.07168 8.34568,6.24204 2.53639,3.07169 4.95009,7.53029 7.24111,13.37581 2.37274,5.84592 4.78644,13.57416 7.24111,23.18476 l 33.9964,132.86642 c 0.89993,3.56691 1.75905,6.48977 2.57735,8.76859 0.89993,2.17978 1.79995,3.91369 2.70007,5.20171 0.98174,1.28805 2.04541,2.17977 3.191,2.67516 1.14538,0.49542 2.49541,0.74311 4.05011,0.7431 0.98174,10e-6 1.92267,-0.0495 2.8228,-0.14862 0.89992,-0.099 1.6363,-0.1486 2.20916,-0.14863 0.49081,3e-5 0.89991,0.0992 1.2273,0.29725 0.409,0.0992 0.69537,0.39633 0.85912,0.89172 0.24535,0.39634 0.40899,1.08989 0.49092,2.08069 0.0817,0.89172 0.12262,2.13022 0.12273,3.7155 M 158.72543,642.3425 l 0,0"
       inkscape:connector-curvature="0" />
    <path
       id="path3854"
       style="font-size:276.59567261px;font-style:normal;font-variant:normal;font-weight:300;font-stretch:normal;text-align:center;line-height:125%;letter-spacing:0px;word-spacing:0px;writing-mode:lr-tb;text-anchor:middle;fill:#171f8a;fill-opacity:1;stroke:none;font-family:Calibri;-inkscape-font-specification:Calibri Light"
       d="m 145.59325,705.80331 c -1.1e-4,3.56695 -0.7774,6.04395 -2.33188,7.431 -1.55469,1.28812 -3.06837,1.93214 -4.54103,1.93207 l -75.724829,0 c -2.8e-5,8.32279 0.654535,15.85287 1.963691,22.59026 1.390916,6.73749 3.640976,12.53367 6.750187,17.38856 3.109138,4.75587 7.159245,8.42183 12.150338,10.99789 4.990993,2.5761 11.127524,3.86414 18.409593,3.86413 5.15463,1e-5 9.77747,-0.54492 13.86858,-1.63482 4.09093,-1.08987 7.60921,-2.27883 10.55483,-3.56689 3.02726,-1.3871 5.48187,-2.6256 7.36384,-3.7155 1.96359,-1.08986 3.35453,-1.6348 4.17284,-1.63482 0.49082,2e-5 0.94083,0.14864 1.35004,0.44586 0.409,0.29726 0.73628,0.79266 0.98185,1.4862 0.24535,0.5945 0.409,1.38714 0.49092,2.37792 0.16353,0.99082 0.24536,2.22932 0.24546,3.71551 -1e-4,0.69358 -0.041,1.38713 -0.12273,2.08068 -0.082,0.59449 -0.20465,1.18897 -0.36819,1.78344 -0.082,0.49542 -0.24557,0.99081 -0.49093,1.4862 -0.24556,0.49541 -0.57285,0.99081 -0.98184,1.48621 -0.4092,0.4954 -1.67742,1.38712 -3.80465,2.67516 -2.12743,1.18896 -4.90932,2.42746 -8.34569,3.7155 -3.43654,1.18896 -7.44574,2.27884 -12.02761,3.26965 -4.50019,0.99079 -9.36851,1.48619 -14.60495,1.48619 -8.591193,0 -16.200491,-1.53574 -22.827897,-4.60722 -6.627493,-3.17056 -12.191279,-7.77777 -16.691373,-13.82167 -4.500146,-6.14294 -7.936601,-13.72257 -10.309376,-22.73889 -2.290987,-9.01624 -3.436471,-19.46918 -3.436459,-31.35885 -1.2e-5,-11.39413 1.186382,-21.59937 3.55919,-30.61575 2.454595,-9.01619 5.93196,-16.64534 10.432107,-22.88751 4.500094,-6.34099 9.900238,-11.14637 16.200449,-14.41616 6.381947,-3.36858 13.459411,-5.05294 21.232411,-5.05308 8.345608,1.4e-4 15.463988,1.6845 21.355128,5.05308 5.89098,3.36886 10.71839,7.92654 14.48223,13.67306 3.84545,5.64768 6.62734,12.23651 8.34568,19.76648 1.79994,7.53019 2.69996,15.45658 2.70007,23.77923 l 0,3.56688 m -15.09587,-5.20171 c 0.24537,-14.26743 -2.45471,-25.41394 -8.10022,-33.43953 -5.64569,-8.02537 -13.86865,-12.0381 -24.668871,-12.03824 -5.563845,1.4e-4 -10.473066,1.28818 -14.727677,3.86413 -4.172888,2.47712 -7.732074,5.7963 -10.677569,9.95755 -2.863751,4.16147 -5.072901,9.0164 -6.627456,14.56478 -1.554619,5.4495 -2.454642,11.14659 -2.700076,17.09131 l 67.501869,0"
       inkscape:connector-curvature="0" />
    <path
       id="path3858"
       style="font-size:276.59567261px;font-style:normal;font-variant:normal;font-weight:300;font-stretch:normal;text-align:center;line-height:125%;letter-spacing:0px;word-spacing:0px;writing-mode:lr-tb;text-anchor:middle;fill:#171f8a;fill-opacity:1;stroke:none;font-family:Calibri;-inkscape-font-specification:Calibri Light"
       d="m 390.44094,711.30226 c -1.1e-4,10.70071 -1.1456,20.55917 -3.43645,29.57541 -2.29109,9.01632 -5.72755,16.84364 -10.30938,23.48198 -4.50023,6.63839 -10.14583,11.84008 -16.93683,15.60512 -6.79119,3.66597 -14.68685,5.49894 -23.68702,5.49894 -8.67303,0 -16.28233,-1.63482 -22.82791,-4.90446 -6.46385,-3.36871 -11.90491,-8.12456 -16.32318,-14.26753 -4.33651,-6.24202 -7.60932,-13.77211 -9.81846,-22.59027 -2.12734,-8.81808 -3.19101,-18.77562 -3.191,-29.87265 -10e-6,-10.70057 1.10457,-20.55903 3.31374,-29.57542 2.29095,-9.01618 5.68649,-16.79396 10.18664,-23.33336 4.58191,-6.63824 10.26843,-11.7904 17.05957,-15.4565 6.79104,-3.66582 14.72762,-5.4988 23.80974,-5.49894 8.6729,1.4e-4 16.24129,1.63496 22.70518,4.90446 6.54554,3.26978 11.9866,8.02562 16.32318,14.26754 4.33638,6.14309 7.60919,13.62362 9.81845,22.44164 2.20904,8.81823 3.31362,18.72623 3.31373,29.72404 m -15.46406,1.63482 c -10e-5,-7.6291 -0.61375,-14.91148 -1.84097,-21.84717 -1.2274,-6.93551 -3.27291,-13.02893 -6.13653,-18.28028 -2.8638,-5.35021 -6.70937,-9.5611 -11.53668,-12.63271 -4.82749,-3.17044 -10.84128,-4.75572 -18.04141,-4.75585 -6.62752,1.3e-4 -12.35494,1.43679 -17.18229,4.30999 -4.82746,2.87344 -8.79574,6.88618 -11.90488,12.03824 -3.02739,5.05318 -5.27745,11.04753 -6.75018,17.98303 -1.4728,6.9357 -2.20919,14.41624 -2.20916,22.44165 -3e-5,7.7283 0.61363,15.10977 1.84096,22.14441 1.22728,6.93564 3.27279,13.02906 6.13653,18.28027 2.86369,5.25127 6.70924,9.41263 11.53669,12.4841 4.82735,3.0715 10.84115,4.60723 18.04141,4.60722 6.62738,10e-6 12.35481,-1.43665 17.18229,-4.30998 4.82732,-2.8733 8.7547,-6.83651 11.78215,-11.88962 3.10908,-5.05305 5.40005,-11.04739 6.87291,-17.98303 1.47267,-6.93556 2.20906,-14.46564 2.20916,-22.59027"
       inkscape:connector-curvature="0" />
    <path
       id="path3860"
       style="font-size:276.59567261px;font-style:normal;font-variant:normal;font-weight:300;font-stretch:normal;text-align:center;line-height:125%;letter-spacing:0px;word-spacing:0px;writing-mode:lr-tb;text-anchor:middle;fill:#171f8a;fill-opacity:1;stroke:none;font-family:Calibri;-inkscape-font-specification:Calibri Light"
       d="m 513.53981,642.3425 c 1.88176,1.4e-4 3.14998,0.59462 3.80465,1.78344 0.65446,1.09002 0.98174,2.62576 0.98186,4.60722 l 0,131.23161 c -1.2e-4,0.59448 -0.12286,1.13942 -0.3682,1.63483 -0.24557,0.4954 -0.65468,0.89172 -1.22731,1.18896 -0.49103,0.29723 -1.22742,0.54493 -2.20915,0.74309 -0.90013,0.19816 -2.04562,0.29724 -3.43646,0.29724 -1.47287,0 -2.70018,-0.099 -3.68192,-0.29724 -0.90013,-0.19816 -1.63651,-0.44586 -2.20915,-0.74309 -0.49103,-0.29724 -0.85922,-0.69356 -1.10458,-1.18896 -0.24556,-0.49541 -0.36829,-1.04035 -0.36819,-1.63483 l 0,-122.61163 -61.36534,0 0,81.29522 c -4e-5,10.20529 1.18635,17.98307 3.55919,23.33337 2.45457,5.35034 6.87287,8.0255 13.25491,8.02549 1.96364,1e-5 3.72278,-0.24769 5.27742,-0.7431 1.63635,-0.49539 3.06821,-1.04032 4.29558,-1.63482 1.22724,-0.59446 2.25,-1.13941 3.06827,-1.63482 0.89995,-0.49539 1.67724,-0.74309 2.33188,-0.74311 0.40903,2e-5 0.77722,0.0992 1.10457,0.29725 0.32721,0.19818 0.57267,0.5945 0.73639,1.18896 0.24539,0.49541 0.40903,1.18897 0.49093,2.08068 0.16356,0.79265 0.24538,1.833 0.24545,3.12102 -7e-5,2.08069 -0.16371,3.76505 -0.49092,5.05309 -0.24553,1.28804 -0.69555,2.32838 -1.35004,3.12102 -0.57281,0.69357 -1.47283,1.38712 -2.70007,2.08068 -1.14555,0.59449 -2.49559,1.08989 -4.05012,1.48621 -1.55465,0.49539 -3.19105,0.84218 -4.90922,1.04033 -1.71829,0.29724 -3.39561,0.44586 -5.03196,0.44586 -5.48202,0 -10.14578,-0.89172 -13.9913,-2.67516 -3.8456,-1.78344 -6.99568,-4.4586 -9.45026,-8.02549 -2.45464,-3.66595 -4.25469,-8.27316 -5.40015,-13.82167 -1.06369,-5.54846 -1.59553,-12.08774 -1.5955,-19.61786 l 0,-83.67315 -16.56864,0 c -1.14549,1.2e-4 -2.04552,-0.59435 -2.70008,-1.78345 -0.65456,-1.28791 -0.98184,-3.17043 -0.98184,-5.64757 0,-1.28789 0.0818,-2.37778 0.24547,-3.26964 0.16363,-0.99066 0.40909,-1.7833 0.73637,-2.37792 0.32728,-0.69342 0.69548,-1.18882 1.10458,-1.4862 0.49092,-0.2971 1.02275,-0.44572 1.5955,-0.44586 l 16.56864,0 0,-32.99368 c -3e-5,-0.5943 0.0818,-1.13924 0.24547,-1.63482 0.24543,-0.49523 0.65453,-0.89155 1.2273,-1.18896 0.57271,-0.39614 1.3091,-0.64384 2.20916,-0.7431 0.98181,-0.19798 2.1682,-0.29706 3.55918,-0.29724 1.47274,1.8e-4 2.65913,0.0993 3.55919,0.29724 0.98181,0.0993 1.71819,0.34696 2.20916,0.7431 0.5727,0.29741 0.9818,0.69373 1.2273,1.18896 0.24542,0.49558 0.36815,1.04052 0.36819,1.63482 l 0,32.99368 71.18379,0 m 6.99565,-42.20813 c -1.2e-4,4.75602 -0.69559,7.97612 -2.08642,9.66031 -1.39106,1.68454 -3.92749,2.52672 -7.6093,2.52654 -3.6002,1.8e-4 -6.09573,-0.79246 -7.48657,-2.37792 -1.30923,-1.68418 -1.96379,-4.90428 -1.96369,-9.66031 -10e-5,-4.75566 0.69537,-7.97576 2.08642,-9.6603 1.39085,-1.68418 3.92727,-2.52635 7.6093,-2.52655 3.59999,2e-4 6.0546,0.84237 7.36384,2.52655 1.39083,1.58546 2.0863,4.75603 2.08642,9.51168 m -37.31012,42.20813 0,0"
       inkscape:connector-curvature="0" />
    <path
       id="path3862"
       style="font-size:276.59567261px;font-style:normal;font-variant:normal;font-weight:300;font-stretch:normal;text-align:center;line-height:125%;letter-spacing:0px;word-spacing:0px;writing-mode:lr-tb;text-anchor:middle;fill:#171f8a;fill-opacity:1;stroke:none;font-family:Calibri;-inkscape-font-specification:Calibri Light"
       d="m 636.76142,760.04967 c -1e-4,1.18898 -0.041,2.27886 -0.12274,3.26964 -0.0819,0.89174 -0.20465,1.68439 -0.36819,2.37792 -0.16374,0.69358 -0.4092,1.33761 -0.73639,1.93207 -0.24555,0.49541 -0.90012,1.38714 -1.96368,2.67516 -1.06376,1.28805 -2.86381,2.92287 -5.40016,4.90447 -2.45469,1.98161 -5.23659,3.7155 -8.34568,5.2017 -3.10925,1.4862 -6.46389,2.67516 -10.06392,3.56689 -3.60016,0.99079 -7.32299,1.48619 -11.16849,1.48619 -7.69118,0 -14.52317,-1.53574 -20.49602,-4.60722 -5.89111,-3.17056 -10.84124,-7.77777 -14.85042,-13.82167 -4.00921,-6.14294 -7.07748,-13.62349 -9.20479,-22.44165 -2.04553,-8.91716 -3.06829,-19.17194 -3.06827,-30.76437 -2e-5,-13.07849 1.26821,-24.27454 3.80465,-33.58815 2.61823,-9.31342 6.17743,-16.94258 10.67757,-22.88751 4.5001,-5.94468 9.7366,-10.30419 15.70953,-13.07858 6.05466,-2.87318 12.51847,-4.30984 19.39144,-4.30998 3.68186,1.4e-4 7.20013,0.446 10.55484,1.33758 3.35456,0.79278 6.42283,1.88266 9.2048,3.26964 2.86363,1.38726 5.40007,2.97254 7.6093,4.75585 2.20907,1.78358 3.80456,3.31931 4.7865,4.60722 1.06357,1.1891 1.75905,2.13035 2.08642,2.82378 0.409,0.59461 0.69538,1.28818 0.85912,2.08069 0.24536,0.79277 0.409,1.68448 0.49092,2.67516 0.0817,0.89184 0.12263,1.98172 0.12273,3.26964 -10e-5,2.87344 -0.36829,4.90458 -1.10458,6.09343 -0.65465,1.08999 -1.39104,1.63493 -2.20914,1.63482 -1.14558,1.1e-4 -2.57744,-0.89161 -4.29558,-2.67516 -1.6365,-1.78333 -3.76383,-3.71538 -6.382,-5.79619 -2.61833,-2.17964 -5.80933,-4.16124 -9.57299,-5.9448 -3.68199,-1.78332 -8.10029,-2.67504 -13.25491,-2.67517 -10.63671,1.3e-4 -18.85966,4.95413 -24.66887,14.86202 -5.72747,9.90811 -8.59117,24.22518 -8.59115,42.95122 -2e-5,9.41268 0.77727,17.68586 2.33188,24.81958 1.55456,7.03472 3.76372,12.92998 6.62746,17.6858 2.9455,4.65678 6.50469,8.17412 10.67757,10.55203 4.17279,2.27886 8.87746,3.41827 14.11403,3.41826 4.90916,10e-6 9.24564,-0.94125 13.00945,-2.82379 3.76367,-1.88249 7.03648,-3.96317 9.81846,-6.24204 2.7818,-2.27882 5.07277,-4.3595 6.87291,-6.24205 1.88178,-1.88249 3.27272,-2.82374 4.17285,-2.82378 0.49082,4e-5 0.89993,0.19819 1.22731,0.59448 0.409,0.29727 0.73628,0.84221 0.98184,1.63482 0.24536,0.69359 0.409,1.58531 0.49092,2.67516 0.16354,0.99083 0.24537,2.17979 0.24547,3.56689"
       inkscape:connector-curvature="0" />
    <g
       style="font-size:758.1796875px;font-style:italic;font-variant:normal;font-weight:bold;font-stretch:normal;line-height:125%;letter-spacing:0px;word-spacing:0px;fill:#95117c;fill-opacity:1;stroke:none;font-family:Calibri;-inkscape-font-specification:Calibri Bold Italic"
       id="g3864"
       transform="matrix(0.90873593,0,0,1.1004297,-8.0584095e-6,-2.4730846e-5)">
      <path
         inkscape:connector-curvature="0"
         d="m 831.716,708.78202 c -1.2e-4,0.63027 -0.13518,1.1705 -0.40517,1.62068 -0.1802,0.45019 -0.58537,0.81034 -1.21551,1.08045 -0.54034,0.27012 -1.26064,0.45019 -2.1609,0.54023 -0.9005,0.18007 -2.02597,0.27011 -3.37641,0.27011 -1.44072,0 -2.65623,-0.09 -3.64653,-0.27011 -0.90049,-0.09 -1.66581,-0.27011 -2.29596,-0.54023 -0.54033,-0.27011 -0.99052,-0.63026 -1.35056,-1.08045 -0.27022,-0.45018 -0.40528,-0.99041 -0.40517,-1.62068 l 0,-17.55734 c -6.48282,7.02295 -13.19061,12.56026 -20.12342,16.61195 -6.93298,3.96166 -14.49613,5.94248 -22.68949,5.94248 -8.82374,0 -16.34188,-1.71071 -22.55443,-5.13214 -6.21263,-3.42143 -11.29976,-8.05836 -15.26138,-13.91082 -3.87164,-5.85242 -6.70783,-12.69528 -8.50856,-20.52858 -1.80077,-7.92327 -2.70115,-16.29677 -2.70113,-25.12051 -2e-5,-10.35426 1.12545,-19.67315 3.37641,-27.95669 2.25092,-8.3734 5.58231,-15.48637 9.99418,-21.33893 4.41181,-5.85233 9.85909,-10.3542 16.34183,-13.50564 6.48267,-3.15119 14.0008,-4.72685 22.55444,-4.72698 7.38301,1.3e-4 14.13583,1.66582 20.25847,4.99709 6.12247,3.24148 12.15498,8.05849 18.09757,14.45104 l 0,-73.60578 c -1.1e-4,-0.54004 0.0899,-1.03525 0.27011,-1.48562 0.27001,-0.45 0.7202,-0.81015 1.35057,-1.08045 0.63015,-0.26993 1.44049,-0.49502 2.43101,-0.67528 1.08034,-0.17989 2.38589,-0.26993 3.91664,-0.27012 1.62056,1.9e-4 2.92611,0.0902 3.91664,0.27012 1.08033,0.18026 1.89067,0.40535 2.43101,0.67528 0.63015,0.2703 1.08034,0.63045 1.35057,1.08045 0.26999,0.45037 0.40505,0.94558 0.40517,1.48562 l 0,181.38085 m -16.07172,-88.19188 c -6.75292,-8.19332 -13.28065,-14.45094 -19.58319,-18.77285 -6.21268,-4.32169 -12.7404,-6.48259 -19.58319,-6.48271 -6.21266,1.2e-4 -11.52488,1.48574 -15.93667,4.45686 -4.41189,2.97136 -8.01339,6.88799 -10.80452,11.74992 -2.7912,4.86213 -4.81704,10.35442 -6.07754,16.47689 -1.26056,6.12264 -1.89082,12.33523 -1.89079,18.63779 -3e-5,6.75289 0.5402,13.32563 1.62068,19.71825 1.08042,6.39271 2.92619,12.1101 5.53732,17.15217 2.61105,4.9521 6.07749,8.95877 10.39935,12.02003 4.32175,2.97126 9.724,4.45687 16.20677,4.45686 3.24129,1e-5 6.3926,-0.45017 9.45396,-1.35056 3.0612,-0.90036 6.21251,-2.38598 9.45395,-4.45687 3.24127,-2.07084 6.57266,-4.72695 9.99418,-7.96833 3.51137,-3.33136 7.24793,-7.42807 11.20969,-12.29014 l 0,-53.34731"
         style="fill:#95117c;fill-opacity:1"
         id="path3866" />
      <path
         inkscape:connector-curvature="0"
         d="m 976.49652,641.38884 c -1.2e-4,3.24142 -0.85548,5.49236 -2.56607,6.75282 -1.71083,1.17056 -3.37653,1.7558 -4.99709,1.75574 l -83.32985,0 c -3e-5,7.56322 0.72027,14.40607 2.16091,20.52858 1.5306,6.1226 4.00663,11.3898 7.4281,15.80161 3.42139,4.32183 7.87825,7.65322 13.37059,9.99418 5.49224,2.34099 12.24506,3.51148 20.25848,3.51147 5.67229,10e-6 10.75941,-0.49519 15.26138,-1.48562 4.50179,-0.9904 8.3734,-2.07085 11.61486,-3.24136 3.33128,-1.26051 6.03241,-2.38598 8.10338,-3.37641 2.1608,-0.99039 3.69144,-1.4856 4.59192,-1.48562 0.54012,2e-5 1.03532,0.13508 1.48563,0.40517 0.45007,0.27013 0.81022,0.72032 1.08045,1.35056 0.26999,0.54025 0.45007,1.26055 0.54022,2.16091 0.17996,0.90039 0.27,2.02586 0.27012,3.37641 -1.2e-4,0.63028 -0.0451,1.26054 -0.13506,1.89079 -0.0901,0.54024 -0.22521,1.08046 -0.40517,1.62068 -0.0901,0.4502 -0.27023,0.90038 -0.54022,1.35056 -0.27023,0.4502 -0.63038,0.90039 -1.08046,1.35057 -0.4503,0.45019 -1.84588,1.26053 -4.18675,2.43102 -2.34109,1.08045 -5.40236,2.20592 -9.18384,3.37641 -3.78168,1.08045 -8.19352,2.07086 -13.23553,2.97124 -4.95216,0.90037 -10.30939,1.35056 -16.07172,1.35056 -9.45402,0 -17.82751,-1.39558 -25.12051,-4.18675 -7.29309,-2.8812 -13.41564,-7.06794 -18.36768,-12.56025 -4.9521,-5.58231 -8.73367,-12.47019 -11.34475,-20.66364 -2.52107,-8.19338 -3.78159,-17.69235 -3.78158,-28.49692 -10e-6,-10.35425 1.30553,-19.62812 3.91664,-27.82163 2.70111,-8.19333 6.52771,-15.12622 11.4798,-20.7987 4.95204,-5.76229 10.89452,-10.12911 17.82746,-13.10048 7.02288,-3.06115 14.81113,-4.59179 23.36477,-4.59192 9.18376,1.3e-4 17.01703,1.53077 23.49983,4.59192 6.48261,3.0614 11.79482,7.20313 15.93666,12.4252 4.23166,5.13225 7.29293,11.11975 9.18384,17.96251 1.98071,6.84295 2.97112,14.04595 2.97124,21.60904 l 0,3.24135 m -16.61194,-4.72698 c 0.27,-12.96533 -2.70124,-23.09456 -8.91373,-30.3877 -6.21269,-7.29294 -15.26146,-10.93946 -27.14635,-10.93958 -6.12263,1.2e-4 -11.52488,1.17061 -16.20678,3.51147 -4.59197,2.25105 -8.5086,5.26731 -11.74992,9.04878 -3.15135,3.78168 -5.58237,8.19353 -7.29305,13.23554 -1.71074,4.95216 -2.70116,10.12931 -2.97124,15.53149 l 74.28107,0"
         style="fill:#95117c;fill-opacity:1"
         id="path3868" />
      <path
         inkscape:connector-curvature="0"
         d="m 1106.0157,586.2858 c -2e-4,0.27023 -0.045,0.58537 -0.1351,0.94539 -10e-5,0.27024 -0.045,0.54035 -0.1351,0.81034 -10e-5,0.27024 -0.045,0.58537 -0.135,0.9454 -0.09,0.27023 -0.1802,0.54034 -0.2701,0.81034 l -44.2985,118.98475 c -0.2702,0.72031 -0.6754,1.30555 -1.2156,1.75574 -0.5402,0.45019 -1.2155,0.81034 -2.0258,1.08045 -0.8104,0.27011 -1.8008,0.45019 -2.9712,0.54023 -1.0806,0.09 -2.3861,0.13505 -3.9167,0.13505 -1.5307,0 -2.8812,-0.09 -4.0517,-0.27011 -1.1705,-0.09 -2.1609,-0.27011 -2.9712,-0.54023 -0.8104,-0.27011 -1.4857,-0.63026 -2.0259,-1.08045 -0.5402,-0.45018 -0.9454,-0.99041 -1.2155,-1.62068 L 996.3498,589.79727 c -0.27012,-0.72018 -0.49521,-1.30543 -0.67528,-1.75574 -0.0901,-0.45006 -0.18008,-0.81021 -0.27012,-1.08045 0,-0.26999 0,-0.49508 0,-0.67528 0,-0.63014 0.13505,-1.17037 0.40517,-1.62068 0.27011,-0.45006 0.67528,-0.76519 1.21551,-0.9454 0.63026,-0.26998 1.4406,-0.45006 2.43102,-0.54022 0.9904,-0.0899 2.2059,-0.13493 3.6465,-0.13506 1.9808,1.3e-4 3.5565,0.0902 4.727,0.27011 1.1705,0.0902 2.0708,0.27024 2.7011,0.54023 0.7203,0.27024 1.2155,0.63039 1.4857,1.08045 0.3601,0.45032 0.6752,0.99054 0.9453,1.62068 l 38.221,106.69462 0.2701,0.67528 0.2702,-0.67528 37.5457,-106.69462 c 0.1799,-0.63014 0.45,-1.17036 0.8103,-1.62068 0.36,-0.45006 0.8553,-0.81021 1.4856,-1.08045 0.7202,-0.26999 1.6206,-0.45006 2.7011,-0.54023 1.1704,-0.17994 2.6561,-0.26998 4.4569,-0.27011 1.4405,1.3e-4 2.611,0.0452 3.5115,0.13506 0.9903,0.0902 1.7556,0.27024 2.2959,0.54022 0.5402,0.27024 0.9003,0.63039 1.0805,1.08046 0.27,0.36027 0.405,0.85548 0.4052,1.48562"
         style="fill:#95117c;fill-opacity:1"
         id="path3870" />
    </g>
    <path
       style="fill:none;stroke:#171f8a;stroke-width:14.42853546;stroke-linecap:round;stroke-linejoin:miter;stroke-miterlimit:4;stroke-opacity:1;stroke-dasharray:none"
       d="m 229.59262,623.88739 17.72747,-40.63172"
       id="path3872"
       inkscape:connector-curvature="0" />
  </g>
</svg>
